<svg id="calvin" class="saxman" xmlns="http://www.w3.org/2000/svg" width="3.95817" height="8.75639" viewBox="0 0 3.95817 8.75639">
  <path fill="none" stroke="#38262f" stroke-width=".5715" d="M.508 5.1223c.67732 1.10064.0635 3.3443.0635 3.3443m1.41815-3.25963c.5715.95247.27517 3.25964.27517 3.25964" stroke-linecap="round" stroke-linejoin="round"/>
  <g transform="translate(1.4,4.507)">
    <g class="body">
      <g transform="translate(-1.4,-4.507)">
        <path fill="#eed7c4" d="M0 1.41816C0 .635.635 0 1.41816 0c.762 0 1.397.635 1.397 1.41816z"/>
        <path class="eyes" fill="#14293b" d="M1.27.42333c-.0847 0-.14818.0635-.14818.14817v.27516c0 .0847.0635.14816.14817.14816.0847 0 .14813-.0635.14813-.14816V.5715c0-.0847-.0635-.14817-.14817-.14817zm.5715 0c-.0847 0-.14818.0635-.14818.14817v.27516c0 .0847.0635.14816.14817.14816.0635 0 .127-.0635.127-.14816V.5715c0-.0847-.0635-.14817-.127-.14817z"/>
        <path fill="none" stroke="#554128" stroke-width=".27516" d="M2.66698 2.032c.16933.71965.52916 1.22764.3175 1.29114" stroke-linecap="round" stroke-linejoin="round"/>
        <path fill="#aa2b15" d="M0 1.41816h2.81515v3.0903H0z"/>
        <path fill="#d28b64" d="M0 2.26482h2.81515v.27516H0zm0 .55033h2.81515v.29632H0zm0 .5715h2.81515v.27515H0zm0 .5715h2.81515v.27515H0zM0 1.6933h2.81515v.27517H0z"/>
        <path class="blush" fill="#e1b3d0" d="M1.27 1.12182c0 .0847-.0635.14817-.14818.14817-.0635 0-.127-.0635-.127-.1482 0-.0635.0635-.127.127-.127.0847 0 .14817.0635.14817.127z M2.11665 1.12182c0 .0847-.0635.14817-.14816.14817-.0635 0-.127-.0635-.127-.1482 0-.0635.0635-.127.127-.127.0847 0 .14812.0635.14812.127z"/>
        <path fill="none" stroke="#554128" stroke-width=".27516" d="M2.98447 3.32314c-.21166.0635-.4445-.40217-.48682-.74083" stroke-linecap="round" stroke-linejoin="round"/>
        <path fill="#38262f" d="M2.81515 4.50847c0 .78317-.635 1.41814-1.397 1.41814C.635 5.9266 0 5.29168 0 4.5085z"/>
        <path fill="#ca8b17" d="M2.15898 1.0795l-.0423.27516.27517.0423-.29633 3.36548c-.0212.3175.1905.59267.48682.635.40216.0423.5715-.10583.67733-.48683l.3175-1.2488c.0212-.14816.254-.16933.381-.0847l-1.016-.635c.14817.0847.10583.23283.0847.381l-.23283 1.524c0 .0847-.0635.14816-.14817.127-.0847 0-.127-.0847-.127-.14817l.14817-3.4078c.0212-.14817-.0847-.29634-.23283-.3175l-.27513-.0212z"/>
        <path fill="#231804" d="M2.15898 1.0795l-.0423.27516-.55033-.0847z"/>
        <path fill="none" stroke="#554128" stroke-width=".27516" d="M.635 2.05315c-.762.80432-.23284 1.62982.23283 1.75682.8255.21167 1.43932-.27517 1.43932-.27517" stroke-linecap="round" stroke-linejoin="round"/>
      </g>
    </g>
  </g>
</svg>
